<?xml version="1.0" encoding="utf-8"?>
<!-- Generator: Adobe Illustrator 16.0.0, SVG Export Plug-In . SVG Version: 6.00 Build 0)  -->
<!DOCTYPE svg PUBLIC "-//W3C//DTD SVG 1.1//EN" "http://www.w3.org/Graphics/SVG/1.1/DTD/svg11.dtd">
<svg version="1.1" id="Layer_1" xmlns="http://www.w3.org/2000/svg" xmlns:xlink="http://www.w3.org/1999/xlink" x="0px" y="0px"
	 width="40px" height="40px" viewBox="0 0 40 40" enable-background="new 0 0 40 40" xml:space="preserve">
<g>
	<path fill="#FFFFFF" d="M27.07,15.144c-0.551,0.246-1.146,0.411-1.766,0.485c0.632-0.381,1.121-0.984,1.349-1.703
		c-0.591,0.352-1.25,0.608-1.949,0.747c-0.565-0.598-1.362-0.972-2.25-0.972c-1.699,0-3.077,1.378-3.077,3.078
		c0,0.241,0.028,0.476,0.081,0.701c-2.557-0.127-4.825-1.353-6.343-3.216c-0.264,0.455-0.417,0.985-0.417,1.548
		c0,1.067,0.545,2.01,1.369,2.561c-0.504-0.017-0.978-0.155-1.392-0.385c-0.001,0.013-0.001,0.025-0.001,0.04
		c0,1.49,1.061,2.734,2.468,3.018c-0.259,0.07-0.532,0.106-0.812,0.106c-0.198,0-0.389-0.017-0.579-0.056
		c0.393,1.225,1.529,2.113,2.876,2.136c-1.053,0.828-2.38,1.318-3.822,1.318c-0.248,0-0.495-0.015-0.734-0.043
		c1.36,0.877,2.979,1.384,4.717,1.384c5.662,0,8.755-4.688,8.755-8.757c0-0.132-0.003-0.265-0.007-0.396
		C26.138,16.305,26.657,15.763,27.07,15.144L27.07,15.144z"/>
</g>
</svg>
