<?xml version="1.0" encoding="utf-8"?>
<!-- Generator: Adobe Illustrator 16.0.0, SVG Export Plug-In . SVG Version: 6.00 Build 0)  -->
<!DOCTYPE svg PUBLIC "-//W3C//DTD SVG 1.1//EN" "http://www.w3.org/Graphics/SVG/1.1/DTD/svg11.dtd">
<svg version="1.1" id="Layer_1" xmlns="http://www.w3.org/2000/svg" xmlns:xlink="http://www.w3.org/1999/xlink" x="0px" y="0px"
	 width="40px" height="40px" viewBox="0 0 40 40" enable-background="new 0 0 40 40" xml:space="preserve">
<g>
	<path fill="#FFFFFF" d="M16.363,19.091v2.183h3.611c-0.147,0.936-1.091,2.745-3.611,2.745c-2.172,0-3.944-1.8-3.944-4.019
		s1.771-4.019,3.944-4.019c1.237,0,2.064,0.526,2.537,0.982l1.73-1.663c-1.11-1.037-2.548-1.664-4.266-1.664
		c-3.519,0-6.363,2.845-6.363,6.363s2.845,6.363,6.363,6.363c3.673,0,6.111-2.582,6.111-6.218c0-0.417-0.047-0.736-0.102-1.054
		L16.363,19.091L16.363,19.091z"/>
	<path fill="#FFFFFF" d="M30,19.091h-1.818v-1.818h-1.819v1.818h-1.817v1.819h1.817v1.816h1.819V20.91H30V19.091z"/>
</g>
</svg>
