<?xml version="1.0" encoding="utf-8"?>
<!-- Generator: Adobe Illustrator 16.0.0, SVG Export Plug-In . SVG Version: 6.00 Build 0)  -->
<!DOCTYPE svg PUBLIC "-//W3C//DTD SVG 1.1//EN" "http://www.w3.org/Graphics/SVG/1.1/DTD/svg11.dtd">
<svg version="1.1" id="Layer_1" xmlns="http://www.w3.org/2000/svg" xmlns:xlink="http://www.w3.org/1999/xlink" x="0px" y="0px"
	 width="40px" height="40px" viewBox="0 0 40 40" enable-background="new 0 0 40 40" xml:space="preserve">
<g>
	<path fill="#FFFFFF" d="M21.069,23.706c-1.001-0.078-1.422-0.574-2.208-1.051c-0.432,2.265-0.959,4.435-2.521,5.568
		c-0.482-3.422,0.708-5.992,1.261-8.72c-0.942-1.587,0.113-4.78,2.102-3.994c2.447,0.968-2.118,5.9,0.947,6.515
		c3.199,0.644,4.505-5.55,2.521-7.565c-2.868-2.909-8.345-0.066-7.671,4.098c0.164,1.018,1.216,1.327,0.42,2.732
		c-1.835-0.406-2.382-1.853-2.312-3.783c0.113-3.157,2.837-5.368,5.569-5.675c3.456-0.387,6.699,1.269,7.146,4.519
		C26.827,20.019,24.764,23.991,21.069,23.706L21.069,23.706z M21.069,23.706"/>
</g>
</svg>
